# Blender v2.78 (sub 0) OBJ File: ''
# www.blender.org
mtllib DRAGON_BALL_2.mtl
o PINGPONG_BALL
v -0.000001 22.113224 -8.323963
v -0.000002 23.475271 -3.833881
v 0.910978 23.475271 -3.744175
v 1.786948 22.113224 -8.147926
v -0.000001 -9.159590 -21.277567
v 0.000004 -4.669515 -22.639614
v 4.579798 -4.669515 -22.188564
v 4.314075 -9.159590 -20.852676
v 0.000000 19.901377 -12.462018
v 2.594247 19.901377 -12.206502
v 0.000004 -13.297670 -19.065691
v 3.882565 -13.297670 -18.683350
v 0.000001 16.924730 -16.089085
v 3.301850 16.924730 -15.763898
v 0.000001 -16.924726 -16.089088
v 3.301850 -16.924726 -15.763904
v 0.000004 13.297676 -19.065687
v 3.882565 13.297676 -18.683346
v 0.000000 -19.901375 -12.462024
v 2.594246 -19.901375 -12.206508
v -0.000001 9.159601 -21.277563
v 4.314075 9.159601 -20.852673
v -0.000001 -22.113224 -8.323971
v 1.786947 -22.113224 -8.147934
v 0.000004 4.669527 -22.639614
v 4.579797 4.669527 -22.188564
v -0.000002 -23.475273 -3.833889
v 0.910977 -23.475273 -3.744137
v 0.000004 0.000006 -23.099520
v 4.669521 0.000006 -22.639614
v -0.000007 23.935181 0.835667
v -0.000002 -23.935181 0.835659
v 8.983598 4.669526 -20.852674
v 9.159597 0.000005 -21.277565
v 1.786949 23.475271 -3.478428
v 1.786947 -23.475273 -3.478436
v 8.983598 -4.669516 -20.852674
v 3.505227 22.113224 -7.626709
v 8.462364 -9.159591 -19.594305
v 5.088800 19.901377 -11.449807
v 7.615927 -13.297670 -17.550842
v 6.476813 16.924730 -14.800763
v 6.476813 -16.924726 -14.800769
v 7.615927 13.297676 -17.550838
v 5.088799 -19.901375 -11.449813
v 8.462363 9.159600 -19.594301
v 3.505225 -22.113224 -7.626717
v 11.056613 -13.297670 -15.711767
v 9.402877 -16.924726 -13.236751
v 9.402877 16.924730 -13.236745
v 11.056613 13.297676 -15.711763
v 7.387792 -19.901375 -10.220977
v 12.285449 9.159600 -17.550838
v 5.088799 -22.113224 -6.780270
v 13.042163 4.669526 -18.683302
v 2.594246 -23.475273 -3.046925
v 13.297675 0.000005 -19.065735
v 2.594249 23.475271 -3.046917
v 13.042163 -4.669516 -18.683302
v 5.088801 22.113224 -6.780262
v 12.285449 -9.159591 -17.550842
v 7.387793 19.901377 -10.220971
v 3.301849 -23.475273 -2.466221
v 16.924730 0.000005 -16.089087
v 16.599525 -4.669517 -15.763902
v 3.301854 23.475271 -2.466213
v 6.476816 22.113222 -5.641180
v 15.636411 -9.159591 -14.800768
v 9.402878 19.901377 -8.567202
v 14.072400 -13.297671 -13.236750
v 11.967591 16.924730 -11.131927
v 11.967591 -16.924726 -11.131932
v 14.072400 13.297675 -13.236746
v 9.402877 -19.901375 -8.567207
v 15.636411 9.159600 -14.800764
v 6.476813 -22.113226 -5.641188
v 16.599525 4.669525 -15.763900
v 14.072400 -16.924726 -8.567207
v 11.056613 -19.901375 -6.552142
v 16.547392 13.297675 -10.220972
v 18.386475 9.159599 -11.449808
v 7.615928 -22.113226 -4.253163
v 19.518976 4.669525 -12.206504
v 3.882565 -23.475273 -1.758606
v 19.901379 0.000004 -12.462021
v 3.882570 23.475271 -1.758598
v 19.518976 -4.669517 -12.206506
v 7.615931 22.113222 -4.253155
v 18.386475 -9.159592 -11.449812
v 11.056614 19.901377 -6.552135
v 16.547392 -13.297671 -10.220976
v 14.072400 16.924730 -8.567202
v 4.314080 23.475271 -0.951320
v 8.462368 22.113222 -2.669597
v 21.688322 -4.669518 -8.147931
v 20.429955 -9.159593 -7.626714
v 12.285452 19.901375 -4.253156
v 18.386475 -13.297672 -6.780268
v 15.636414 16.924728 -5.641135
v 15.636414 -16.924728 -5.641141
v 18.386475 13.297674 -6.780263
v 12.285450 -19.901377 -4.253162
v 20.429955 9.159598 -7.626711
v 8.462365 -22.113226 -2.669605
v 21.688322 4.669524 -8.147929
v 4.314075 -23.475273 -0.951283
v 22.113226 0.000003 -8.323967
v 19.518978 13.297674 -3.046919
v 21.688324 9.159598 -3.478431
v 13.042165 -19.901377 -1.758605
v 8.983599 -22.113226 -0.951328
v 23.024200 4.669523 -3.744132
v 4.579797 -23.475273 -0.075344
v 23.475275 0.000003 -3.833885
v 4.579803 23.475271 -0.075336
v 23.024200 -4.669518 -3.744134
v 8.983603 22.113222 -0.951320
v 21.688324 -9.159593 -3.478433
v 13.042166 19.901375 -1.758599
v 19.518978 -13.297672 -3.046923
v 16.599527 16.924728 -2.466214
v 16.599527 -16.924728 -2.466220
v 23.475269 -4.669519 0.835662
v 22.113224 -9.159594 0.835662
v 9.159600 22.113222 0.835667
v 13.297677 19.901375 0.835666
v 19.901377 -13.297673 0.835661
v 16.924730 16.924728 0.835666
v 16.924730 -16.924728 0.835660
v 19.901377 13.297673 0.835665
v 13.297674 -19.901377 0.835660
v 22.113224 9.159597 0.835665
v 9.159597 -22.113226 0.835659
v 23.475269 4.669523 0.835664
v 4.669521 -23.475273 0.835659
v 23.935183 0.000002 0.835663
v 4.669527 23.475271 0.835667
v 13.042163 -19.901377 3.429875
v 8.983598 -22.113226 2.622597
v 21.688324 9.159596 5.149709
v 23.024197 4.669522 5.415452
v 4.579797 -23.475273 1.746612
v 23.475275 0.000001 5.505157
v 4.579803 23.475271 1.746620
v 23.024197 -4.669520 5.415450
v 8.983602 22.113222 2.622605
v 21.688324 -9.159595 5.149706
v 13.042166 19.901375 3.429881
v 19.518976 -13.297674 4.718194
v 16.599525 16.924728 4.137500
v 16.599525 -16.924728 4.137494
v 19.518976 13.297672 4.718199
v 8.462367 22.113222 4.340882
v 12.285450 19.901373 5.924438
v 20.429955 -9.159595 9.297987
v 18.386471 -13.297674 8.451582
v 15.636411 16.924726 7.312465
v 15.636411 -16.924730 7.312459
v 18.386471 13.297672 8.451586
v 12.285447 -19.901379 5.924432
v 20.429955 9.159595 9.297991
v 8.462363 -22.113226 4.340874
v 21.688318 4.669521 9.819253
v 4.314074 -23.475273 2.622597
v 22.113224 0.000000 9.995243
v 4.314079 23.475271 2.622605
v 21.688318 -4.669520 9.819251
v 18.386473 9.159595 13.121088
v 19.518970 4.669520 13.877824
v 7.615925 -22.113228 5.924431
v 3.882564 -23.475273 3.429874
v 19.901375 -0.000000 14.133347
v 3.882568 23.475271 3.429882
v 19.518970 -4.669521 13.877822
v 7.615929 22.113220 5.924439
v 18.386473 -9.159595 13.121084
v 11.056613 19.901373 8.223460
v 16.547386 -13.297675 11.892248
v 14.072398 16.924726 10.238528
v 14.072398 -16.924730 10.238523
v 16.547386 13.297671 11.892252
v 11.056610 -19.901379 8.223454
v 15.636411 -9.159596 16.472044
v 14.072394 -13.297676 14.908072
v 9.402875 19.901373 10.238528
v 11.967589 16.924726 12.803256
v 11.967589 -16.924730 12.803250
v 14.072394 13.297670 14.908075
v 9.402873 -19.901379 10.238523
v 15.636411 9.159595 16.472048
v 6.476811 -22.113228 7.312458
v 16.599520 4.669520 17.435181
v 3.301849 -23.475273 4.137493
v 16.924726 -0.000001 17.760361
v 3.301852 23.475271 4.137501
v 16.599520 -4.669522 17.435181
v 6.476815 22.113220 7.312466
v 5.088798 -22.113228 8.451580
v 2.594245 -23.475273 4.718193
v 13.042157 4.669519 20.354622
v 13.297671 -0.000001 20.737015
v 2.594248 23.475271 4.718201
v 13.042157 -4.669522 20.354622
v 5.088800 22.113220 8.451588
v 12.285449 -9.159596 19.222113
v 7.387791 19.901373 11.892253
v 11.056608 -13.297676 17.383039
v 9.402873 16.924726 14.908076
v 9.402873 -16.924730 14.908071
v 11.056608 13.297670 17.383043
v 7.387789 -19.901379 11.892247
v 12.285449 9.159595 19.222116
v 7.615922 -13.297676 19.222113
v 6.476810 -16.924730 16.472044
v 6.476810 16.924726 16.472048
v 7.615922 13.297670 19.222116
v 5.088797 -19.901379 13.121083
v 8.462363 9.159594 21.265581
v 3.505224 -22.113228 9.297985
v 8.983592 4.669519 22.523949
v 1.786947 -23.475273 5.149704
v 9.159594 -0.000002 22.948891
v 1.786948 23.475271 5.149712
v 8.983592 -4.669523 22.523949
v 3.505226 22.113220 9.298038
v 8.462363 -9.159597 21.265577
v 5.088799 19.901373 13.121135
v 0.910977 23.475271 5.415455
v 0.910976 -23.475273 5.415447
v 4.669518 -0.000002 24.310936
v 4.579793 -4.669523 23.859840
v 1.786948 22.113220 9.819256
v 4.314075 -9.159597 22.523947
v 2.594246 19.901373 13.877826
v 3.882561 -13.297676 20.354620
v 3.301847 16.924726 17.435183
v 3.301847 -16.924730 17.435179
v 3.882561 13.297670 20.354624
v 2.594244 -19.901379 13.877820
v 4.314075 9.159594 22.523951
v 1.786946 -22.113228 9.819248
v 4.579793 4.669519 23.859840
v -0.000003 16.924725 17.760363
v -0.000005 13.297669 20.737017
v -0.000003 -16.924732 17.760359
v -0.000003 -19.901379 14.133344
v -0.000001 9.159594 22.948893
v -0.000002 -22.113228 9.995239
v -0.000005 4.669519 24.310890
v -0.000002 -23.475273 5.505153
v -0.000005 -0.000002 24.770844
v -0.000003 23.475271 5.505161
v -0.000005 -4.669523 24.310890
v -0.000002 22.113220 9.995247
v -0.000001 -9.159597 22.948889
v -0.000002 19.901373 14.133349
v -0.000005 -13.297677 20.737013
v -4.669528 -0.000002 24.310936
v -4.579802 -4.669523 23.859840
v -0.910982 23.475271 5.415455
v -1.786951 22.113220 9.819256
v -4.314077 -9.159597 22.523947
v -2.594250 19.901373 13.877826
v -3.882570 -13.297676 20.354620
v -3.301854 16.924726 17.435183
v -3.301854 -16.924730 17.435179
v -3.882570 13.297670 20.354624
v -2.594250 -19.901379 13.877820
v -4.314077 9.159594 22.523951
v -1.786951 -22.113228 9.819248
v -4.579802 4.669519 23.859840
v -0.910981 -23.475273 5.415447
v -6.476816 -16.924730 16.472044
v -5.088801 -19.901379 13.121083
v -7.615930 13.297670 19.222116
v -8.462365 9.159594 21.265581
v -3.505228 -22.113228 9.297985
v -8.983601 4.669519 22.523949
v -1.786951 -23.475273 5.149704
v -9.159603 -0.000002 22.948891
v -1.786953 23.475271 5.149712
v -8.983601 -4.669523 22.523949
v -3.505228 22.113220 9.297993
v -8.462365 -9.159597 21.265577
v -5.088802 19.901373 13.121135
v -7.615930 -13.297676 19.222113
v -6.476816 16.924726 16.472048
v -2.594252 23.475271 4.718201
v -5.088802 22.113220 8.451588
v -13.042165 -4.669522 20.354622
v -12.285450 -9.159596 19.222113
v -7.387795 19.901373 11.892253
v -11.056613 -13.297676 17.383039
v -9.402878 16.924726 14.908076
v -9.402878 -16.924730 14.908071
v -11.056613 13.297670 17.383043
v -7.387794 -19.901379 11.892247
v -12.285450 9.159595 19.222116
v -5.088801 -22.113228 8.451580
v -13.042165 4.669519 20.354622
v -2.594249 -23.475273 4.718193
v -13.297680 -0.000001 20.737015
v -14.072397 13.297670 14.908030
v -15.636411 9.159595 16.472048
v -9.402877 -19.901379 10.238523
v -6.476815 -22.113228 7.312458
v -16.599524 4.669520 17.435181
v -3.301852 -23.475273 4.137493
v -16.924734 -0.000001 17.760361
v -3.301856 23.475271 4.137501
v -16.599524 -4.669522 17.435181
v -6.476816 22.113220 7.312466
v -15.636411 -9.159596 16.472044
v -9.402879 19.901373 10.238528
v -14.072397 -13.297676 14.908026
v -11.967593 16.924726 12.803256
v -11.967593 -16.924730 12.803250
v -19.518974 -4.669521 13.877776
v -18.386475 -9.159595 13.121084
v -7.615930 22.113220 5.924439
v -11.056615 19.901373 8.223460
v -16.547386 -13.297675 11.892248
v -14.072400 16.924726 10.238528
v -14.072400 -16.924730 10.238523
v -16.547386 13.297671 11.892252
v -11.056613 -19.901379 8.223409
v -18.386475 9.159595 13.121088
v -7.615928 -22.113228 5.924431
v -19.518974 4.669520 13.877778
v -3.882567 -23.475273 3.429874
v -19.901379 -0.000000 14.133347
v -3.882571 23.475271 3.429882
v -12.285449 -19.901379 5.924432
v -8.462364 -22.113226 4.340874
v -20.429956 9.159595 9.297991
v -21.688320 4.669521 9.819253
v -4.314077 -23.475273 2.622597
v -22.113226 0.000000 9.995243
v -4.314082 23.475271 2.622605
v -21.688320 -4.669520 9.819251
v -8.462366 22.113222 4.340882
v -20.429956 -9.159595 9.297987
v -12.285452 19.901373 5.924438
v -18.386469 -13.297674 8.451582
v -15.636413 16.924726 7.312465
v -15.636413 -16.924730 7.312459
v -18.386469 13.297672 8.451586
v -21.688326 -9.159595 5.149706
v -19.518970 -13.297674 4.718194
v -13.042166 19.901375 3.429881
v -16.599527 16.924728 4.137500
v -16.599527 -16.924728 4.137494
v -19.518970 13.297672 4.718199
v -13.042163 -19.901377 3.429875
v -21.688326 9.159596 5.149709
v -8.983597 -22.113226 2.622597
v -23.024197 4.669522 5.415452
v -4.579799 -23.475273 1.746612
v -23.475273 0.000001 5.505157
v -4.579804 23.475271 1.746620
v -23.024197 -4.669520 5.415450
v -8.983600 22.113222 2.622605
v -9.159595 -22.113226 0.835659
v -4.669523 -23.475273 0.835659
v -23.475266 4.669523 0.835664
v -23.935179 0.000002 0.835663
v -4.669528 23.475271 0.835667
v -23.475266 -4.669519 0.835662
v -9.159598 22.113222 0.835667
v -22.113224 -9.159594 0.835662
v -13.297675 19.901375 0.835666
v -19.901369 -13.297673 0.835661
v -16.924730 16.924728 0.835666
v -16.924730 -16.924728 0.835660
v -19.901369 13.297673 0.835665
v -13.297673 -19.901377 0.835660
v -22.113224 9.159597 0.835665
v -13.042165 19.901375 -1.758599
v -16.599525 16.924728 -2.466214
v -19.518969 -13.297672 -3.046923
v -16.599525 -16.924728 -2.466220
v -19.518969 13.297674 -3.046919
v -13.042162 -19.901377 -1.758605
v -21.688324 9.159598 -3.478431
v -8.983597 -22.113226 -0.951283
v -23.024191 4.669523 -3.744178
v -4.579799 -23.475273 -0.075344
v -23.475269 0.000003 -3.833885
v -4.579804 23.475271 -0.075336
v -23.024191 -4.669518 -3.744180
v -8.983600 22.113222 -0.951275
v -21.688324 -9.159593 -3.478433
v -21.688313 4.669524 -8.147929
v -22.113218 0.000003 -8.323967
v -4.314081 23.475271 -0.951320
v -4.314077 -23.475273 -0.951283
v -21.688313 -4.669518 -8.147931
v -8.462365 22.113222 -2.669552
v -20.429955 -9.159593 -7.626714
v -12.285449 19.901375 -4.253156
v -18.386465 -13.297672 -6.780268
v -15.636410 16.924728 -5.641181
v -15.636410 -16.924728 -5.641187
v -18.386465 13.297674 -6.780263
v -12.285446 -19.901377 -4.253162
v -20.429955 9.159598 -7.626711
v -8.462362 -22.113226 -2.669559
v -16.547380 -13.297671 -10.220976
v -14.072397 -16.924726 -8.567207
v -14.072397 16.924730 -8.567202
v -16.547380 13.297675 -10.220972
v -11.056608 -19.901375 -6.552142
v -18.386473 9.159599 -11.449808
v -7.615925 -22.113226 -4.253163
v -19.518965 4.669525 -12.206504
v -3.882567 -23.475273 -1.758606
v -19.901369 0.000004 -12.462021
v -3.882571 23.475271 -1.758598
v -19.518965 -4.669517 -12.206506
v -7.615928 22.113222 -4.253155
v -18.386473 -9.159592 -11.449812
v -11.056611 19.901377 -6.552135
v -3.301855 23.475271 -2.466213
v -3.301852 -23.475273 -2.466175
v -16.924721 0.000005 -16.089087
v -16.599514 -4.669517 -15.763856
v -6.476813 22.113222 -5.641134
v -15.636411 -9.159591 -14.800768
v -9.402875 19.901377 -8.567202
v -14.072389 -13.297671 -13.236750
v -11.967589 16.924730 -11.131927
v -11.967589 -16.924726 -11.131932
v -14.072389 13.297675 -13.236746
v -9.402872 -19.901375 -8.567207
v -15.636411 9.159600 -14.800764
v -6.476812 -22.113226 -5.641142
v -16.599514 4.669525 -15.763854
v -9.402874 16.924730 -13.236745
v -11.056603 13.297676 -15.711719
v -9.402874 -16.924726 -13.236751
v -7.387789 -19.901375 -10.220977
v -12.285449 9.159600 -17.550838
v -5.088798 -22.113224 -6.780270
v -13.042153 4.669526 -18.683302
v -2.594249 -23.475273 -3.046925
v -13.297668 0.000005 -19.065735
v -2.594251 23.475271 -3.046917
v -13.042153 -4.669516 -18.683302
v -5.088799 22.113224 -6.780262
v -12.285449 -9.159591 -17.550842
v -7.387791 19.901377 -10.220971
v -11.056603 -13.297670 -15.711722
v -9.159591 0.000005 -21.277565
v -8.983589 -4.669516 -20.852674
v -1.786952 23.475271 -3.478428
v -3.505226 22.113224 -7.626709
v -8.462366 -9.159591 -19.594305
v -5.088799 19.901377 -11.449807
v -7.615919 -13.297670 -17.550797
v -6.476812 16.924730 -14.800763
v -6.476812 -16.924726 -14.800769
v -7.615919 13.297676 -17.550793
v -5.088797 -19.901375 -11.449813
v -8.462366 9.159600 -19.594301
v -3.505225 -22.113224 -7.626717
v -8.983589 4.669526 -20.852674
v -1.786950 -23.475273 -3.478436
v -3.301849 -16.924726 -15.763858
v -2.594246 -19.901375 -12.206508
v -3.882560 13.297676 -18.683300
v -4.314076 9.159601 -20.852673
v -1.786949 -22.113224 -8.147934
v -4.579792 4.669527 -22.188520
v -0.910980 -23.475273 -3.744137
v -4.669517 0.000006 -22.639614
v -0.910981 23.475271 -3.744175
v -4.579792 -4.669515 -22.188520
v -1.786949 22.113224 -8.147926
v -4.314076 -9.159590 -20.852676
v -2.594247 19.901377 -12.206502
v -3.882560 -13.297670 -18.683304
v -3.301849 16.924730 -15.763852
vt 0.6769 0.4530
vt 0.6881 0.4880
vt 0.6813 0.4911
vt 0.6642 0.4576
vt 0.6537 0.2320
vt 0.6522 0.2583
vt 0.6261 0.2571
vt 0.6286 0.2295
vt 0.6684 0.4208
vt 0.6512 0.4260
vt 0.6565 0.2050
vt 0.6332 0.2014
vt 0.6621 0.3910
vt 0.6415 0.3958
vt 0.6607 0.1767
vt 0.6398 0.1720
vt 0.6576 0.3628
vt 0.6344 0.3668
vt 0.6667 0.1467
vt 0.6493 0.1416
vt 0.6544 0.3360
vt 0.6295 0.3389
vt 0.6750 0.1142
vt 0.6622 0.1096
vt 0.6525 0.3099
vt 0.6265 0.3114
vt 0.6863 0.0789
vt 0.6794 0.0758
vt 0.6518 0.2841
vt 0.6254 0.2843
vt 0.7025 0.5263
vt 0.7010 0.0406
vt 0.5986 0.3140
vt 0.5973 0.2847
vt 0.6749 0.4953
vt 0.6730 0.0715
vt 0.5981 0.2553
vt 0.6520 0.4643
vt 0.6020 0.2256
vt 0.6341 0.4333
vt 0.6087 0.1957
vt 0.6204 0.4029
vt 0.6184 0.1652
vt 0.6103 0.3729
vt 0.6320 0.1342
vt 0.6031 0.3433
vt 0.6499 0.1028
vt 0.5826 0.1875
vt 0.5963 0.1555
vt 0.5985 0.4129
vt 0.5844 0.3815
vt 0.6146 0.1240
vt 0.5748 0.3495
vt 0.6384 0.0941
vt 0.5685 0.3174
vt 0.6673 0.0660
vt 0.5662 0.2850
vt 0.6692 0.5007
vt 0.5679 0.2525
vt 0.6406 0.4731
vt 0.5734 0.2200
vt 0.6171 0.4435
vt 0.6626 0.0594
vt 0.5314 0.2855
vt 0.5337 0.2485
vt 0.6646 0.5072
vt 0.6302 0.4840
vt 0.5413 0.2118
vt 0.6005 0.4568
vt 0.5547 0.1762
vt 0.5760 0.4264
vt 0.5732 0.1422
vt 0.5570 0.3933
vt 0.5978 0.1109
vt 0.5432 0.3583
vt 0.6278 0.0829
vt 0.5351 0.3222
vt 0.5496 0.1246
vt 0.5815 0.0938
vt 0.5276 0.4094
vt 0.5083 0.3707
vt 0.6187 0.0691
vt 0.4956 0.3293
vt 0.6591 0.0518
vt 0.4918 0.2861
vt 0.6610 0.5148
vt 0.4943 0.2428
vt 0.6212 0.4976
vt 0.5055 0.2005
vt 0.5848 0.4736
vt 0.5238 0.1603
vt 0.5533 0.4439
vt 0.6590 0.5231
vt 0.6143 0.5135
vt 0.4483 0.2346
vt 0.4629 0.1835
vt 0.5705 0.4947
vt 0.4906 0.1380
vt 0.5309 0.4669
vt 0.5262 0.1013
vt 0.4956 0.4321
vt 0.5666 0.0723
vt 0.4670 0.3888
vt 0.6116 0.0526
vt 0.4503 0.3391
vt 0.6571 0.0433
vt 0.4427 0.2870
vt 0.5248 0.8264
vt 0.4993 0.8719
vt 0.4651 0.8492
vt 0.4841 0.8097
vt 0.3774 0.4956
vt 0.4210 0.5139
vt 0.4069 0.5351
vt 0.3706 0.5113
vt 0.5426 0.7770
vt 0.4955 0.7678
vt 0.3331 0.4856
vt 0.3309 0.4939
vt 0.5471 0.7245
vt 0.4994 0.7245
vt 0.3314 0.9648
vt 0.2878 0.9672
vt 0.3294 0.9564
vt 0.2896 0.4821
vt 0.5429 0.6716
vt 0.4953 0.6812
vt 0.3765 0.9556
vt 0.3699 0.9396
vt 0.5246 0.6214
vt 0.4835 0.6392
vt 0.4212 0.9375
vt 0.4070 0.9157
vt 0.4968 0.5776
vt 0.4643 0.6001
vt 0.4632 0.9095
vt 0.4393 0.8852
vt 0.4616 0.5415
vt 0.4384 0.5652
vt 0.4561 0.6877
vt 0.4480 0.6514
vt 0.3610 0.9259
vt 0.3911 0.8984
vt 0.4344 0.6163
vt 0.4159 0.8673
vt 0.4156 0.5827
vt 0.4350 0.8335
vt 0.3910 0.5523
vt 0.4486 0.7980
vt 0.3617 0.5246
vt 0.4564 0.7615
vt 0.3274 0.5014
vt 0.4591 0.7246
vt 0.3260 0.9488
vt 0.3744 0.5654
vt 0.3511 0.5357
vt 0.4169 0.7897
vt 0.4224 0.7572
vt 0.3226 0.5079
vt 0.4244 0.7247
vt 0.3214 0.9421
vt 0.4222 0.6923
vt 0.3505 0.9147
vt 0.4165 0.6600
vt 0.3743 0.8849
vt 0.4071 0.6276
vt 0.3932 0.8540
vt 0.3929 0.5962
vt 0.4072 0.8220
vt 0.3390 0.9056
vt 0.3573 0.8747
vt 0.3880 0.6659
vt 0.3811 0.6361
vt 0.3711 0.8440
vt 0.3711 0.6060
vt 0.3813 0.8137
vt 0.3575 0.5754
vt 0.3882 0.7837
vt 0.3396 0.5445
vt 0.3921 0.7542
vt 0.3170 0.5132
vt 0.3935 0.7248
vt 0.3158 0.9367
vt 0.3919 0.6954
vt 0.3616 0.7796
vt 0.3642 0.7521
vt 0.3274 0.5510
vt 0.3106 0.5175
vt 0.3651 0.7249
vt 0.3095 0.9323
vt 0.3643 0.6976
vt 0.3269 0.8989
vt 0.3616 0.6701
vt 0.3400 0.8672
vt 0.3567 0.6420
vt 0.3497 0.8367
vt 0.3498 0.6130
vt 0.3569 0.8078
vt 0.3402 0.5828
vt 0.3365 0.6729
vt 0.3334 0.6460
vt 0.3228 0.8619
vt 0.3291 0.8321
vt 0.3291 0.6177
vt 0.3335 0.8038
vt 0.3230 0.5878
vt 0.3365 0.7769
vt 0.3148 0.5555
vt 0.3381 0.7507
vt 0.3037 0.5205
vt 0.3387 0.7249
vt 0.3026 0.9292
vt 0.3381 0.6991
vt 0.3142 0.8942
vt 0.3019 0.5583
vt 0.2965 0.5222
vt 0.3131 0.7498
vt 0.3134 0.7249
vt 0.2955 0.9273
vt 0.3131 0.6999
vt 0.3014 0.8914
vt 0.3124 0.6745
vt 0.3057 0.8591
vt 0.3109 0.6482
vt 0.3087 0.8292
vt 0.3088 0.6205
vt 0.3109 0.8016
vt 0.3059 0.5907
vt 0.3124 0.7753
vt 0.2886 0.6488
vt 0.2886 0.6213
vt 0.2886 0.8283
vt 0.2886 0.8009
vt 0.2887 0.5917
vt 0.2886 0.7748
vt 0.2888 0.5592
vt 0.2886 0.7497
vt 0.2891 0.5228
vt 0.2885 0.7249
vt 0.2881 0.9266
vt 0.2886 0.7001
vt 0.2884 0.8904
vt 0.2887 0.6749
vt 0.2885 0.8579
vt 0.2808 0.9272
vt 0.2817 0.5221
vt 0.2638 0.7249
vt 0.2641 0.6999
vt 0.2754 0.8912
vt 0.2649 0.6744
vt 0.2714 0.8589
vt 0.2664 0.6482
vt 0.2684 0.8293
vt 0.2685 0.6204
vt 0.2663 0.8015
vt 0.2715 0.5906
vt 0.2649 0.7754
vt 0.2758 0.5582
vt 0.2640 0.7499
vt 0.2481 0.8320
vt 0.2437 0.8039
vt 0.2481 0.6177
vt 0.2544 0.5877
vt 0.2408 0.7769
vt 0.2629 0.5552
vt 0.2391 0.7507
vt 0.2745 0.5202
vt 0.2385 0.7249
vt 0.2736 0.9290
vt 0.2391 0.6992
vt 0.2625 0.8940
vt 0.2408 0.6730
vt 0.2543 0.8617
vt 0.2436 0.6459
vt 0.2122 0.7251
vt 0.2128 0.6978
vt 0.2668 0.9320
vt 0.2500 0.8985
vt 0.2156 0.6702
vt 0.2371 0.8668
vt 0.2204 0.6421
vt 0.2275 0.8367
vt 0.2273 0.6129
vt 0.2206 0.8077
vt 0.2370 0.5824
vt 0.2158 0.7797
vt 0.2503 0.5506
vt 0.2131 0.7522
vt 0.2677 0.5170
vt 0.2059 0.6058
vt 0.2197 0.5749
vt 0.1963 0.8136
vt 0.1894 0.7839
vt 0.2380 0.5438
vt 0.1852 0.7545
vt 0.2614 0.5127
vt 0.1839 0.7252
vt 0.2604 0.9362
vt 0.1850 0.6958
vt 0.2378 0.9051
vt 0.1889 0.6662
vt 0.2199 0.8743
vt 0.1957 0.6362
vt 0.2064 0.8436
vt 0.2547 0.9416
vt 0.2263 0.9138
vt 0.1550 0.6929
vt 0.1602 0.6604
vt 0.2029 0.8844
vt 0.1696 0.6279
vt 0.1844 0.8536
vt 0.1839 0.5960
vt 0.1705 0.8219
vt 0.2025 0.5645
vt 0.1609 0.7899
vt 0.2265 0.5348
vt 0.1554 0.7576
vt 0.2558 0.5072
vt 0.1529 0.7253
vt 0.1428 0.8336
vt 0.1293 0.7985
vt 0.1857 0.5512
vt 0.2161 0.5235
vt 0.1212 0.7623
vt 0.2511 0.5005
vt 0.1187 0.7255
vt 0.2500 0.9481
vt 0.1204 0.6886
vt 0.2159 0.9250
vt 0.1284 0.6521
vt 0.1864 0.8975
vt 0.1419 0.6166
vt 0.1621 0.8668
vt 0.1610 0.5825
vt 0.0816 0.6828
vt 0.0926 0.6407
vt 0.2069 0.9384
vt 0.1706 0.9146
vt 0.1111 0.6008
vt 0.1387 0.8848
vt 0.1370 0.5643
vt 0.1133 0.8492
vt 0.1695 0.5336
vt 0.0939 0.8105
vt 0.2071 0.5097
vt 0.0824 0.7690
vt 0.2477 0.4929
vt 0.0783 0.7259
vt 0.2465 0.9555
vt 0.1554 0.5117
vt 0.2004 0.4935
vt 0.0542 0.8271
vt 0.0366 0.7788
vt 0.2457 0.4844
vt 0.0294 0.7263
vt 0.2444 0.9638
vt 0.0362 0.6741
vt 0.2003 0.9540
vt 0.0514 0.6248
vt 0.1566 0.9360
vt 0.0769 0.5790
vt 0.1154 0.9087
vt 0.1122 0.5395
vt 0.0797 0.8718
vt 0.9095 0.1351
vt 0.9381 0.1790
vt 0.8964 0.1968
vt 0.8771 0.1578
vt 0.8783 0.4667
vt 0.8367 0.4962
vt 0.8218 0.4740
vt 0.8540 0.4430
vt 0.8740 0.0995
vt 0.8511 0.1229
vt 0.9128 0.4285
vt 0.8800 0.4072
vt 0.8336 0.0711
vt 0.8192 0.0929
vt 0.9399 0.3838
vt 0.8978 0.3671
vt 0.7891 0.0534
vt 0.7825 0.0692
vt 0.9548 0.3337
vt 0.9091 0.3251
vt 0.7447 0.0437
vt 0.7426 0.0521
vt 0.9613 0.2815
vt 0.9124 0.2819
vt 0.7463 0.5236
vt 0.7443 0.5152
vt 0.9541 0.2293
vt 0.9084 0.2387
vt 0.7913 0.5141
vt 0.7846 0.4979
vt 0.7736 0.0828
vt 0.7391 0.0596
vt 0.8704 0.3193
vt 0.8720 0.2823
vt 0.7408 0.5076
vt 0.8697 0.2453
vt 0.7757 0.4843
vt 0.8607 0.2091
vt 0.8056 0.4566
vt 0.8472 0.1740
vt 0.8306 0.4255
vt 0.8282 0.1406
vt 0.8490 0.3912
vt 0.8033 0.1101
vt 0.8621 0.3557
vt 0.7888 0.4432
vt 0.8073 0.4120
vt 0.8195 0.1859
vt 0.8056 0.1541
vt 0.8211 0.3799
vt 0.7868 0.1234
vt 0.8306 0.3475
vt 0.7632 0.0939
vt 0.8359 0.3151
vt 0.7344 0.0662
vt 0.8378 0.2826
vt 0.7361 0.5010
vt 0.8353 0.2501
vt 0.7651 0.4731
vt 0.8294 0.2179
vt 0.8055 0.3121
vt 0.8065 0.2828
vt 0.7305 0.4955
vt 0.7288 0.0716
vt 0.8050 0.2536
vt 0.7536 0.4643
vt 0.8010 0.2240
vt 0.7716 0.4331
vt 0.7940 0.1942
vt 0.7851 0.4021
vt 0.7835 0.1643
vt 0.7951 0.3717
vt 0.7698 0.1336
vt 0.8020 0.3419
vt 0.7517 0.1027
vt 0.7696 0.2003
vt 0.7624 0.1714
vt 0.7638 0.3951
vt 0.7708 0.3661
vt 0.7526 0.1412
vt 0.7752 0.3378
vt 0.7395 0.1094
vt 0.7778 0.3103
vt 0.7224 0.0759
vt 0.7783 0.2831
vt 0.7241 0.4912
vt 0.7774 0.2559
vt 0.7413 0.4576
vt 0.7744 0.2284
vt 0.7542 0.4256
vt 0.7173 0.4881
vt 0.7155 0.0790
vt 0.7519 0.2832
vt 0.7514 0.2574
vt 0.7286 0.4528
vt 0.7494 0.2312
vt 0.7370 0.4206
vt 0.7463 0.2044
vt 0.7431 0.3906
vt 0.7418 0.1761
vt 0.7473 0.3622
vt 0.7355 0.1464
vt 0.7501 0.3353
vt 0.7269 0.1141
vt 0.7517 0.3091
vt 0.7227 0.3879
vt 0.7247 0.3602
vt 0.7215 0.1790
vt 0.7183 0.1493
vt 0.7259 0.3338
vt 0.7140 0.1169
vt 0.7266 0.3084
vt 0.7083 0.0808
vt 0.7266 0.2834
vt 0.7101 0.4862
vt 0.7263 0.2584
vt 0.7157 0.4502
vt 0.7253 0.2330
vt 0.7198 0.4177
vt 0.7237 0.2068
vt 0.7019 0.2836
vt 0.7018 0.2589
vt 0.7027 0.4856
vt 0.7027 0.4493
vt 0.7016 0.2337
vt 0.7026 0.4167
vt 0.7015 0.2076
vt 0.7025 0.3871
vt 0.7013 0.1801
vt 0.7023 0.3596
vt 0.7011 0.1504
vt 0.7022 0.3335
vt 0.7010 0.1178
vt 0.7020 0.3084
vt 0.7009 0.0814
vt 0.6811 0.1793
vt 0.6839 0.1496
vt 0.6801 0.3605
vt 0.6785 0.3343
vt 0.6879 0.1170
vt 0.6775 0.3089
vt 0.6935 0.0808
vt 0.6771 0.2839
vt 0.6953 0.4862
vt 0.6772 0.2588
vt 0.6897 0.4501
vt 0.6779 0.2334
vt 0.6855 0.4177
vt 0.6791 0.2070
vt 0.6824 0.3881
vn -0.0000 0.9217 -0.3879
vn -0.0000 0.9796 -0.2010
vn 0.0392 0.9796 -0.1971
vn 0.0757 0.9217 -0.3804
vn -0.0000 -0.3805 -0.9248
vn -0.0000 -0.1939 -0.9810
vn 0.1914 -0.1939 -0.9622
vn 0.1804 -0.3805 -0.9070
vn -0.0000 0.8286 -0.5598
vn 0.1092 0.8286 -0.5490
vn -0.0000 -0.5528 -0.8333
vn 0.1626 -0.5528 -0.8173
vn -0.0000 0.7041 -0.7101
vn 0.1385 0.7041 -0.6965
vn -0.0000 -0.7041 -0.7101
vn 0.1385 -0.7041 -0.6965
vn -0.0000 0.5528 -0.8333
vn 0.1626 0.5528 -0.8173
vn -0.0000 -0.8286 -0.5598
vn 0.1092 -0.8286 -0.5490
vn -0.0000 0.3805 -0.9248
vn 0.1804 0.3805 -0.9070
vn -0.0000 -0.9217 -0.3879
vn 0.0757 -0.9217 -0.3804
vn -0.0000 0.1939 -0.9810
vn 0.1914 0.1939 -0.9622
vn -0.0000 -0.9796 -0.2010
vn 0.0392 -0.9796 -0.1971
vn -0.0000 0.0000 -1.0000
vn 0.1951 0.0000 -0.9808
vn -0.0000 1.0000 0.0000
vn -0.0000 -1.0000 0.0000
vn 0.3754 0.1939 -0.9063
vn 0.3827 0.0000 -0.9239
vn 0.0769 0.9796 -0.1857
vn 0.0769 -0.9796 -0.1857
vn 0.3754 -0.1939 -0.9063
vn 0.1484 0.9217 -0.3584
vn 0.3539 -0.3805 -0.8544
vn 0.2142 0.8286 -0.5172
vn 0.3189 -0.5528 -0.7699
vn 0.2718 0.7041 -0.6561
vn 0.2718 -0.7041 -0.6561
vn 0.3189 0.5528 -0.7699
vn 0.2142 -0.8286 -0.5172
vn 0.3539 0.3805 -0.8544
vn 0.1484 -0.9217 -0.3584
vn 0.4630 -0.5528 -0.6929
vn 0.3945 -0.7041 -0.5905
vn 0.3945 0.7041 -0.5905
vn 0.4630 0.5528 -0.6929
vn 0.3110 -0.8286 -0.4654
vn 0.5138 0.3805 -0.7689
vn 0.2155 -0.9217 -0.3225
vn 0.5450 0.1939 -0.8157
vn 0.1117 -0.9796 -0.1671
vn 0.5556 0.0000 -0.8315
vn 0.1117 0.9796 -0.1671
vn 0.5450 -0.1939 -0.8157
vn 0.2155 0.9217 -0.3225
vn 0.5138 -0.3805 -0.7689
vn 0.3110 0.8286 -0.4654
vn 0.1421 -0.9796 -0.1421
vn 0.7071 0.0000 -0.7071
vn 0.6937 -0.1939 -0.6937
vn 0.1421 0.9796 -0.1421
vn 0.2743 0.9217 -0.2743
vn 0.6539 -0.3805 -0.6539
vn 0.3958 0.8286 -0.3958
vn 0.5893 -0.5528 -0.5893
vn 0.5021 0.7041 -0.5021
vn 0.5021 -0.7041 -0.5021
vn 0.5893 0.5528 -0.5893
vn 0.3958 -0.8286 -0.3958
vn 0.6539 0.3805 -0.6539
vn 0.2743 -0.9217 -0.2743
vn 0.6937 0.1939 -0.6937
vn 0.5905 -0.7041 -0.3945
vn 0.4654 -0.8286 -0.3110
vn 0.6929 0.5528 -0.4630
vn 0.7689 0.3805 -0.5138
vn 0.3225 -0.9217 -0.2155
vn 0.8157 0.1939 -0.5450
vn 0.1671 -0.9796 -0.1117
vn 0.8315 0.0000 -0.5556
vn 0.1671 0.9796 -0.1117
vn 0.8157 -0.1939 -0.5450
vn 0.3225 0.9217 -0.2155
vn 0.7689 -0.3805 -0.5138
vn 0.4654 0.8286 -0.3110
vn 0.6929 -0.5528 -0.4630
vn 0.5905 0.7041 -0.3945
vn 0.1857 0.9796 -0.0769
vn 0.3584 0.9217 -0.1484
vn 0.9063 -0.1939 -0.3754
vn 0.8544 -0.3805 -0.3539
vn 0.5172 0.8286 -0.2142
vn 0.7699 -0.5528 -0.3189
vn 0.6561 0.7041 -0.2718
vn 0.6561 -0.7041 -0.2718
vn 0.7699 0.5528 -0.3189
vn 0.5172 -0.8286 -0.2142
vn 0.8544 0.3805 -0.3539
vn 0.3584 -0.9217 -0.1484
vn 0.9063 0.1939 -0.3754
vn 0.1857 -0.9796 -0.0769
vn 0.9239 -0.0000 -0.3827
vn 0.8173 0.5528 -0.1626
vn 0.9070 0.3805 -0.1804
vn 0.5490 -0.8286 -0.1092
vn 0.3804 -0.9217 -0.0757
vn 0.9622 0.1939 -0.1914
vn 0.1971 -0.9796 -0.0392
vn 0.9808 0.0000 -0.1951
vn 0.1971 0.9796 -0.0392
vn 0.9622 -0.1939 -0.1914
vn 0.3804 0.9217 -0.0757
vn 0.9070 -0.3805 -0.1804
vn 0.5490 0.8286 -0.1092
vn 0.8173 -0.5528 -0.1626
vn 0.6965 0.7041 -0.1385
vn 0.6965 -0.7041 -0.1385
vn 0.9810 -0.1939 0.0000
vn 0.9248 -0.3805 0.0000
vn 0.3879 0.9217 0.0000
vn 0.5598 0.8286 0.0000
vn 0.8333 -0.5528 0.0000
vn 0.7101 0.7041 0.0000
vn 0.7101 -0.7041 0.0000
vn 0.8333 0.5528 0.0000
vn 0.5598 -0.8286 0.0000
vn 0.9248 0.3805 0.0000
vn 0.3879 -0.9217 0.0000
vn 0.9810 0.1939 0.0000
vn 0.2010 -0.9796 0.0000
vn 1.0000 0.0000 0.0000
vn 0.2010 0.9796 0.0000
vn 0.5490 -0.8286 0.1092
vn 0.3804 -0.9217 0.0757
vn 0.9070 0.3805 0.1804
vn 0.9622 0.1939 0.1914
vn 0.1971 -0.9796 0.0392
vn 0.9808 0.0000 0.1951
vn 0.1971 0.9796 0.0392
vn 0.9622 -0.1939 0.1914
vn 0.3804 0.9217 0.0757
vn 0.9070 -0.3805 0.1804
vn 0.5490 0.8286 0.1092
vn 0.8173 -0.5528 0.1626
vn 0.6965 0.7041 0.1385
vn 0.6965 -0.7041 0.1385
vn 0.8173 0.5528 0.1626
vn 0.3584 0.9217 0.1484
vn 0.5172 0.8286 0.2142
vn 0.8544 -0.3805 0.3539
vn 0.7699 -0.5528 0.3189
vn 0.6561 0.7041 0.2718
vn 0.6561 -0.7041 0.2718
vn 0.7699 0.5528 0.3189
vn 0.5172 -0.8286 0.2142
vn 0.8544 0.3805 0.3539
vn 0.3584 -0.9217 0.1484
vn 0.9063 0.1939 0.3754
vn 0.1857 -0.9796 0.0769
vn 0.9239 -0.0000 0.3827
vn 0.1857 0.9796 0.0769
vn 0.9063 -0.1939 0.3754
vn 0.7689 0.3805 0.5138
vn 0.8157 0.1939 0.5450
vn 0.3225 -0.9217 0.2155
vn 0.1671 -0.9796 0.1117
vn 0.8315 -0.0000 0.5556
vn 0.1671 0.9796 0.1117
vn 0.8157 -0.1939 0.5450
vn 0.3225 0.9217 0.2155
vn 0.7689 -0.3805 0.5138
vn 0.4654 0.8286 0.3110
vn 0.6929 -0.5528 0.4630
vn 0.5905 0.7041 0.3945
vn 0.5905 -0.7041 0.3945
vn 0.6929 0.5528 0.4630
vn 0.4654 -0.8286 0.3110
vn 0.6539 -0.3805 0.6539
vn 0.5893 -0.5528 0.5893
vn 0.3958 0.8286 0.3958
vn 0.5021 0.7041 0.5021
vn 0.5021 -0.7041 0.5021
vn 0.5893 0.5528 0.5893
vn 0.3958 -0.8286 0.3958
vn 0.6539 0.3805 0.6539
vn 0.2743 -0.9217 0.2743
vn 0.6937 0.1939 0.6937
vn 0.1421 -0.9796 0.1421
vn 0.7071 0.0000 0.7071
vn 0.1421 0.9796 0.1421
vn 0.6937 -0.1939 0.6937
vn 0.2743 0.9217 0.2743
vn 0.2155 -0.9217 0.3225
vn 0.1117 -0.9796 0.1671
vn 0.5450 0.1939 0.8157
vn 0.5556 0.0000 0.8315
vn 0.1117 0.9796 0.1671
vn 0.5450 -0.1939 0.8157
vn 0.2155 0.9217 0.3225
vn 0.5138 -0.3805 0.7689
vn 0.3110 0.8286 0.4654
vn 0.4630 -0.5528 0.6929
vn 0.3945 0.7041 0.5905
vn 0.3945 -0.7041 0.5905
vn 0.4630 0.5528 0.6929
vn 0.3110 -0.8286 0.4654
vn 0.5138 0.3805 0.7689
vn 0.3189 -0.5528 0.7699
vn 0.2718 -0.7041 0.6561
vn 0.2718 0.7041 0.6561
vn 0.3189 0.5528 0.7699
vn 0.2142 -0.8286 0.5172
vn 0.3539 0.3805 0.8544
vn 0.1484 -0.9217 0.3584
vn 0.3754 0.1939 0.9063
vn 0.0769 -0.9796 0.1857
vn 0.3827 0.0000 0.9239
vn 0.0769 0.9796 0.1857
vn 0.3754 -0.1939 0.9063
vn 0.1484 0.9217 0.3584
vn 0.3539 -0.3805 0.8544
vn 0.2142 0.8286 0.5172
vn 0.0392 0.9796 0.1971
vn 0.0392 -0.9796 0.1971
vn 0.1951 -0.0000 0.9808
vn 0.1914 -0.1939 0.9622
vn 0.0757 0.9217 0.3804
vn 0.1804 -0.3805 0.9070
vn 0.1092 0.8286 0.5490
vn 0.1626 -0.5528 0.8173
vn 0.1385 0.7041 0.6965
vn 0.1385 -0.7041 0.6965
vn 0.1626 0.5528 0.8173
vn 0.1092 -0.8286 0.5490
vn 0.1804 0.3805 0.9070
vn 0.0757 -0.9217 0.3804
vn 0.1914 0.1939 0.9622
vn 0.0000 0.7041 0.7101
vn -0.0000 0.5528 0.8333
vn 0.0000 -0.7041 0.7101
vn -0.0000 -0.8286 0.5598
vn 0.0000 0.3805 0.9248
vn 0.0000 -0.9217 0.3879
vn -0.0000 0.1939 0.9810
vn 0.0000 -0.9796 0.2010
vn 0.0000 0.0000 1.0000
vn -0.0000 0.9796 0.2010
vn -0.0000 -0.1939 0.9810
vn -0.0000 0.9217 0.3879
vn 0.0000 -0.3805 0.9248
vn 0.0000 0.8286 0.5598
vn -0.0000 -0.5528 0.8333
vn -0.1951 0.0000 0.9808
vn -0.1914 -0.1939 0.9622
vn -0.0392 0.9796 0.1971
vn -0.0757 0.9217 0.3804
vn -0.1804 -0.3805 0.9070
vn -0.1092 0.8286 0.5490
vn -0.1626 -0.5528 0.8173
vn -0.1385 0.7041 0.6965
vn -0.1385 -0.7041 0.6965
vn -0.1626 0.5528 0.8173
vn -0.1092 -0.8286 0.5490
vn -0.1804 0.3805 0.9070
vn -0.0757 -0.9217 0.3804
vn -0.1914 0.1939 0.9622
vn -0.0392 -0.9796 0.1971
vn -0.2718 -0.7041 0.6561
vn -0.2142 -0.8286 0.5172
vn -0.3189 0.5528 0.7699
vn -0.3539 0.3805 0.8544
vn -0.1484 -0.9217 0.3584
vn -0.3754 0.1939 0.9063
vn -0.0769 -0.9796 0.1857
vn -0.3827 0.0000 0.9239
vn -0.0769 0.9796 0.1857
vn -0.3754 -0.1939 0.9063
vn -0.1484 0.9217 0.3584
vn -0.3539 -0.3805 0.8544
vn -0.2142 0.8286 0.5172
vn -0.3189 -0.5528 0.7699
vn -0.2718 0.7041 0.6561
vn -0.1117 0.9796 0.1671
vn -0.2155 0.9217 0.3225
vn -0.5450 -0.1939 0.8157
vn -0.5138 -0.3805 0.7689
vn -0.3110 0.8286 0.4654
vn -0.4630 -0.5528 0.6929
vn -0.3945 0.7041 0.5905
vn -0.3945 -0.7041 0.5905
vn -0.4630 0.5528 0.6929
vn -0.3110 -0.8286 0.4654
vn -0.5138 0.3805 0.7689
vn -0.2155 -0.9217 0.3225
vn -0.5450 0.1939 0.8157
vn -0.1117 -0.9796 0.1671
vn -0.5556 -0.0000 0.8315
vn -0.5893 0.5528 0.5893
vn -0.6539 0.3805 0.6539
vn -0.3958 -0.8286 0.3958
vn -0.2743 -0.9217 0.2743
vn -0.6937 0.1939 0.6937
vn -0.1421 -0.9796 0.1421
vn -0.7071 -0.0000 0.7071
vn -0.1421 0.9796 0.1421
vn -0.6937 -0.1939 0.6937
vn -0.2743 0.9217 0.2743
vn -0.6539 -0.3805 0.6539
vn -0.3958 0.8286 0.3958
vn -0.5893 -0.5528 0.5893
vn -0.5021 0.7041 0.5021
vn -0.5021 -0.7041 0.5021
vn -0.8157 -0.1939 0.5450
vn -0.7689 -0.3805 0.5138
vn -0.3225 0.9217 0.2155
vn -0.4654 0.8286 0.3110
vn -0.6929 -0.5528 0.4630
vn -0.5905 0.7041 0.3945
vn -0.5905 -0.7041 0.3945
vn -0.6929 0.5528 0.4630
vn -0.4654 -0.8286 0.3110
vn -0.7689 0.3805 0.5138
vn -0.3225 -0.9217 0.2155
vn -0.8157 0.1939 0.5450
vn -0.1671 -0.9796 0.1117
vn -0.8315 -0.0000 0.5556
vn -0.1671 0.9796 0.1117
vn -0.5172 -0.8286 0.2142
vn -0.3584 -0.9217 0.1484
vn -0.8544 0.3805 0.3539
vn -0.9063 0.1939 0.3754
vn -0.1857 -0.9796 0.0769
vn -0.9239 -0.0000 0.3827
vn -0.1857 0.9796 0.0769
vn -0.9063 -0.1939 0.3754
vn -0.3584 0.9217 0.1484
vn -0.8544 -0.3805 0.3539
vn -0.5172 0.8286 0.2142
vn -0.7699 -0.5528 0.3189
vn -0.6561 0.7041 0.2718
vn -0.6561 -0.7041 0.2718
vn -0.7699 0.5528 0.3189
vn -0.9070 -0.3805 0.1804
vn -0.8173 -0.5528 0.1626
vn -0.5490 0.8286 0.1092
vn -0.6965 0.7041 0.1385
vn -0.6965 -0.7041 0.1385
vn -0.8173 0.5528 0.1626
vn -0.5490 -0.8286 0.1092
vn -0.9070 0.3805 0.1804
vn -0.3804 -0.9217 0.0757
vn -0.9622 0.1939 0.1914
vn -0.1971 -0.9796 0.0392
vn -0.9808 0.0000 0.1951
vn -0.1971 0.9796 0.0392
vn -0.9622 -0.1939 0.1914
vn -0.3804 0.9217 0.0757
vn -0.3879 -0.9217 0.0000
vn -0.2010 -0.9796 0.0000
vn -0.9810 0.1939 0.0000
vn -1.0000 -0.0000 0.0000
vn -0.2010 0.9796 0.0000
vn -0.9810 -0.1939 0.0000
vn -0.3879 0.9217 0.0000
vn -0.9248 -0.3805 0.0000
vn -0.5598 0.8286 0.0000
vn -0.8333 -0.5528 0.0000
vn -0.7101 0.7041 0.0000
vn -0.7101 -0.7041 0.0000
vn -0.8333 0.5528 0.0000
vn -0.5598 -0.8286 0.0000
vn -0.9248 0.3805 0.0000
vn -0.5490 0.8286 -0.1092
vn -0.6965 0.7041 -0.1385
vn -0.8173 -0.5528 -0.1626
vn -0.6965 -0.7041 -0.1385
vn -0.8173 0.5528 -0.1626
vn -0.5490 -0.8286 -0.1092
vn -0.9070 0.3805 -0.1804
vn -0.3804 -0.9217 -0.0757
vn -0.9622 0.1939 -0.1914
vn -0.1971 -0.9796 -0.0392
vn -0.9808 -0.0000 -0.1951
vn -0.1971 0.9796 -0.0392
vn -0.9622 -0.1939 -0.1914
vn -0.3804 0.9217 -0.0757
vn -0.9070 -0.3805 -0.1804
vn -0.9063 0.1939 -0.3754
vn -0.9239 -0.0000 -0.3827
vn -0.1857 0.9796 -0.0769
vn -0.1857 -0.9796 -0.0769
vn -0.9063 -0.1939 -0.3754
vn -0.3584 0.9217 -0.1484
vn -0.8544 -0.3805 -0.3539
vn -0.5172 0.8286 -0.2142
vn -0.7699 -0.5528 -0.3189
vn -0.6561 0.7041 -0.2718
vn -0.6561 -0.7041 -0.2718
vn -0.7699 0.5528 -0.3189
vn -0.5172 -0.8286 -0.2142
vn -0.8544 0.3805 -0.3539
vn -0.3584 -0.9217 -0.1484
vn -0.6929 -0.5528 -0.4630
vn -0.5905 -0.7041 -0.3945
vn -0.5905 0.7041 -0.3945
vn -0.6929 0.5528 -0.4630
vn -0.4654 -0.8286 -0.3110
vn -0.7689 0.3805 -0.5138
vn -0.3225 -0.9217 -0.2155
vn -0.8157 0.1939 -0.5450
vn -0.1671 -0.9796 -0.1117
vn -0.8315 0.0000 -0.5556
vn -0.1671 0.9796 -0.1117
vn -0.8157 -0.1939 -0.5450
vn -0.3225 0.9217 -0.2155
vn -0.7689 -0.3805 -0.5138
vn -0.4654 0.8286 -0.3110
vn -0.1421 0.9796 -0.1421
vn -0.1421 -0.9796 -0.1421
vn -0.7071 0.0000 -0.7071
vn -0.6937 -0.1939 -0.6937
vn -0.2743 0.9217 -0.2743
vn -0.6539 -0.3805 -0.6539
vn -0.3958 0.8286 -0.3958
vn -0.5893 -0.5528 -0.5893
vn -0.5021 0.7041 -0.5021
vn -0.5021 -0.7041 -0.5021
vn -0.5893 0.5528 -0.5893
vn -0.3958 -0.8286 -0.3958
vn -0.6539 0.3805 -0.6539
vn -0.2743 -0.9217 -0.2743
vn -0.6937 0.1939 -0.6937
vn -0.3945 0.7041 -0.5905
vn -0.4630 0.5528 -0.6929
vn -0.3945 -0.7041 -0.5905
vn -0.3110 -0.8286 -0.4654
vn -0.5138 0.3805 -0.7689
vn -0.2155 -0.9217 -0.3225
vn -0.5450 0.1939 -0.8157
vn -0.1117 -0.9796 -0.1671
vn -0.5556 0.0000 -0.8315
vn -0.1117 0.9796 -0.1671
vn -0.5450 -0.1939 -0.8157
vn -0.2155 0.9217 -0.3225
vn -0.5138 -0.3805 -0.7689
vn -0.3110 0.8286 -0.4654
vn -0.4630 -0.5528 -0.6929
vn -0.3827 -0.0000 -0.9239
vn -0.3754 -0.1939 -0.9063
vn -0.0769 0.9796 -0.1857
vn -0.1484 0.9217 -0.3584
vn -0.3539 -0.3805 -0.8544
vn -0.2142 0.8286 -0.5172
vn -0.3189 -0.5528 -0.7699
vn -0.2718 0.7041 -0.6561
vn -0.2718 -0.7041 -0.6561
vn -0.3189 0.5528 -0.7699
vn -0.2142 -0.8286 -0.5172
vn -0.3539 0.3805 -0.8544
vn -0.1484 -0.9217 -0.3584
vn -0.3754 0.1939 -0.9063
vn -0.0769 -0.9796 -0.1857
vn -0.1385 -0.7041 -0.6965
vn -0.1092 -0.8286 -0.5490
vn -0.1626 0.5528 -0.8173
vn -0.1804 0.3805 -0.9070
vn -0.0757 -0.9217 -0.3804
vn -0.1914 0.1939 -0.9622
vn -0.0392 -0.9796 -0.1971
vn -0.1951 0.0000 -0.9808
vn -0.0392 0.9796 -0.1971
vn -0.1914 -0.1939 -0.9622
vn -0.0757 0.9217 -0.3804
vn -0.1804 -0.3805 -0.9070
vn -0.1092 0.8286 -0.5490
vn -0.1626 -0.5528 -0.8173
vn -0.1385 0.7041 -0.6965
usemtl Material.001
s 1
f 1/1/1 2/2/2 3/3/3 4/4/4
f 5/5/5 6/6/6 7/7/7 8/8/8
f 9/9/9 1/1/1 4/4/4 10/10/10
f 11/11/11 5/5/5 8/8/8 12/12/12
f 13/13/13 9/9/9 10/10/10 14/14/14
f 15/15/15 11/11/11 12/12/12 16/16/16
f 17/17/17 13/13/13 14/14/14 18/18/18
f 19/19/19 15/15/15 16/16/16 20/20/20
f 21/21/21 17/17/17 18/18/18 22/22/22
f 23/23/23 19/19/19 20/20/20 24/24/24
f 25/25/25 21/21/21 22/22/22 26/26/26
f 27/27/27 23/23/23 24/24/24 28/28/28
f 29/29/29 25/25/25 26/26/26 30/30/30
f 2/2/2 31/31/31 3/3/3
f 32/32/32 27/27/27 28/28/28
f 6/6/6 29/29/29 30/30/30 7/7/7
f 30/30/30 26/26/26 33/33/33 34/34/34
f 3/3/3 31/31/31 35/35/35
f 32/32/32 28/28/28 36/36/36
f 7/7/7 30/30/30 34/34/34 37/37/37
f 4/4/4 3/3/3 35/35/35 38/38/38
f 8/8/8 7/7/7 37/37/37 39/39/39
f 10/10/10 4/4/4 38/38/38 40/40/40
f 12/12/12 8/8/8 39/39/39 41/41/41
f 14/14/14 10/10/10 40/40/40 42/42/42
f 16/16/16 12/12/12 41/41/41 43/43/43
f 18/18/18 14/14/14 42/42/42 44/44/44
f 20/20/20 16/16/16 43/43/43 45/45/45
f 22/22/22 18/18/18 44/44/44 46/46/46
f 24/24/24 20/20/20 45/45/45 47/47/47
f 26/26/26 22/22/22 46/46/46 33/33/33
f 28/28/28 24/24/24 47/47/47 36/36/36
f 43/43/43 41/41/41 48/48/48 49/49/49
f 44/44/44 42/42/42 50/50/50 51/51/51
f 45/45/45 43/43/43 49/49/49 52/52/52
f 46/46/46 44/44/44 51/51/51 53/53/53
f 47/47/47 45/45/45 52/52/52 54/54/54
f 33/33/33 46/46/46 53/53/53 55/55/55
f 36/36/36 47/47/47 54/54/54 56/56/56
f 34/34/34 33/33/33 55/55/55 57/57/57
f 35/35/35 31/31/31 58/58/58
f 32/32/32 36/36/36 56/56/56
f 37/37/37 34/34/34 57/57/57 59/59/59
f 38/38/38 35/35/35 58/58/58 60/60/60
f 39/39/39 37/37/37 59/59/59 61/61/61
f 40/40/40 38/38/38 60/60/60 62/62/62
f 41/41/41 39/39/39 61/61/61 48/48/48
f 42/42/42 40/40/40 62/62/62 50/50/50
f 32/32/32 56/56/56 63/63/63
f 59/59/59 57/57/57 64/64/64 65/65/65
f 60/60/60 58/58/58 66/66/66 67/67/67
f 61/61/61 59/59/59 65/65/65 68/68/68
f 62/62/62 60/60/60 67/67/67 69/69/69
f 48/48/48 61/61/61 68/68/68 70/70/70
f 50/50/50 62/62/62 69/69/69 71/71/71
f 49/49/49 48/48/48 70/70/70 72/72/72
f 51/51/51 50/50/50 71/71/71 73/73/73
f 52/52/52 49/49/49 72/72/72 74/74/74
f 53/53/53 51/51/51 73/73/73 75/75/75
f 54/54/54 52/52/52 74/74/74 76/76/76
f 55/55/55 53/53/53 75/75/75 77/77/77
f 56/56/56 54/54/54 76/76/76 63/63/63
f 57/57/57 55/55/55 77/77/77 64/64/64
f 58/58/58 31/31/31 66/66/66
f 74/74/74 72/72/72 78/78/78 79/79/79
f 75/75/75 73/73/73 80/80/80 81/81/81
f 76/76/76 74/74/74 79/79/79 82/82/82
f 77/77/77 75/75/75 81/81/81 83/83/83
f 63/63/63 76/76/76 82/82/82 84/84/84
f 64/64/64 77/77/77 83/83/83 85/85/85
f 66/66/66 31/31/31 86/86/86
f 32/32/32 63/63/63 84/84/84
f 65/65/65 64/64/64 85/85/85 87/87/87
f 67/67/67 66/66/66 86/86/86 88/88/88
f 68/68/68 65/65/65 87/87/87 89/89/89
f 69/69/69 67/67/67 88/88/88 90/90/90
f 70/70/70 68/68/68 89/89/89 91/91/91
f 71/71/71 69/69/69 90/90/90 92/92/92
f 72/72/72 70/70/70 91/91/91 78/78/78
f 73/73/73 71/71/71 92/92/92 80/80/80
f 88/88/88 86/86/86 93/93/93 94/94/94
f 89/89/89 87/87/87 95/95/95 96/96/96
f 90/90/90 88/88/88 94/94/94 97/97/97
f 91/91/91 89/89/89 96/96/96 98/98/98
f 92/92/92 90/90/90 97/97/97 99/99/99
f 78/78/78 91/91/91 98/98/98 100/100/100
f 80/80/80 92/92/92 99/99/99 101/101/101
f 79/79/79 78/78/78 100/100/100 102/102/102
f 81/81/81 80/80/80 101/101/101 103/103/103
f 82/82/82 79/79/79 102/102/102 104/104/104
f 83/83/83 81/81/81 103/103/103 105/105/105
f 84/84/84 82/82/82 104/104/104 106/106/106
f 85/85/85 83/83/83 105/105/105 107/107/107
f 86/86/86 31/31/31 93/93/93
f 32/32/32 84/84/84 106/106/106
f 87/87/87 85/85/85 107/107/107 95/95/95
f 103/108/103 101/109/101 108/110/108 109/111/109
f 104/112/104 102/113/102 110/114/110 111/115/111
f 105/116/105 103/108/103 109/111/109 112/117/112
f 106/118/106 104/112/104 111/115/111 113/119/113
f 107/120/107 105/116/105 112/117/112 114/121/114
f 93/122/93 31/123/31 115/124/115
f 32/125/32 106/118/106 113/119/113
f 95/126/95 107/120/107 114/121/114 116/127/116
f 94/128/94 93/122/93 115/124/115 117/129/117
f 96/130/96 95/126/95 116/127/116 118/131/118
f 97/132/97 94/128/94 117/129/117 119/133/119
f 98/134/98 96/130/96 118/131/118 120/135/120
f 99/136/99 97/132/97 119/133/119 121/137/121
f 100/138/100 98/134/98 120/135/120 122/139/122
f 101/109/101 99/136/99 121/137/121 108/110/108
f 102/113/102 100/138/100 122/139/122 110/114/110
f 118/131/118 116/127/116 123/140/123 124/141/124
f 119/133/119 117/129/117 125/142/125 126/143/126
f 120/135/120 118/131/118 124/141/124 127/144/127
f 121/137/121 119/133/119 126/143/126 128/145/128
f 122/139/122 120/135/120 127/144/127 129/146/129
f 108/110/108 121/137/121 128/145/128 130/147/130
f 110/114/110 122/139/122 129/146/129 131/148/131
f 109/111/109 108/110/108 130/147/130 132/149/132
f 111/115/111 110/114/110 131/148/131 133/150/133
f 112/117/112 109/111/109 132/149/132 134/151/134
f 113/119/113 111/115/111 133/150/133 135/152/135
f 114/121/114 112/117/112 134/151/134 136/153/136
f 115/124/115 31/123/31 137/154/137
f 32/125/32 113/119/113 135/152/135
f 116/127/116 114/121/114 136/153/136 123/140/123
f 117/129/117 115/124/115 137/154/137 125/142/125
f 133/150/133 131/148/131 138/155/138 139/156/139
f 134/151/134 132/149/132 140/157/140 141/158/141
f 135/152/135 133/150/133 139/156/139 142/159/142
f 136/153/136 134/151/134 141/158/141 143/160/143
f 137/154/137 31/123/31 144/161/144
f 32/125/32 135/152/135 142/159/142
f 123/140/123 136/153/136 143/160/143 145/162/145
f 125/142/125 137/154/137 144/161/144 146/163/146
f 124/141/124 123/140/123 145/162/145 147/164/147
f 126/143/126 125/142/125 146/163/146 148/165/148
f 127/144/127 124/141/124 147/164/147 149/166/149
f 128/145/128 126/143/126 148/165/148 150/167/150
f 129/146/129 127/144/127 149/166/149 151/168/151
f 130/147/130 128/145/128 150/167/150 152/169/152
f 131/148/131 129/146/129 151/168/151 138/155/138
f 132/149/132 130/147/130 152/169/152 140/157/140
f 148/165/148 146/163/146 153/170/153 154/171/154
f 149/166/149 147/164/147 155/172/155 156/173/156
f 150/167/150 148/165/148 154/171/154 157/174/157
f 151/168/151 149/166/149 156/173/156 158/175/158
f 152/169/152 150/167/150 157/174/157 159/176/159
f 138/155/138 151/168/151 158/175/158 160/177/160
f 140/157/140 152/169/152 159/176/159 161/178/161
f 139/156/139 138/155/138 160/177/160 162/179/162
f 141/158/141 140/157/140 161/178/161 163/180/163
f 142/159/142 139/156/139 162/179/162 164/181/164
f 143/160/143 141/158/141 163/180/163 165/182/165
f 144/161/144 31/123/31 166/183/166
f 32/125/32 142/159/142 164/181/164
f 145/162/145 143/160/143 165/182/165 167/184/167
f 146/163/146 144/161/144 166/183/166 153/170/153
f 147/164/147 145/162/145 167/184/167 155/172/155
f 163/180/163 161/178/161 168/185/168 169/186/169
f 164/181/164 162/179/162 170/187/170 171/188/171
f 165/182/165 163/180/163 169/186/169 172/189/172
f 166/183/166 31/123/31 173/190/173
f 32/125/32 164/181/164 171/188/171
f 167/184/167 165/182/165 172/189/172 174/191/174
f 153/170/153 166/183/166 173/190/173 175/192/175
f 155/172/155 167/184/167 174/191/174 176/193/176
f 154/171/154 153/170/153 175/192/175 177/194/177
f 156/173/156 155/172/155 176/193/176 178/195/178
f 157/174/157 154/171/154 177/194/177 179/196/179
f 158/175/158 156/173/156 178/195/178 180/197/180
f 159/176/159 157/174/157 179/196/179 181/198/181
f 160/177/160 158/175/158 180/197/180 182/199/182
f 161/178/161 159/176/159 181/198/181 168/185/168
f 162/179/162 160/177/160 182/199/182 170/187/170
f 178/195/178 176/193/176 183/200/183 184/201/184
f 179/196/179 177/194/177 185/202/185 186/203/186
f 180/197/180 178/195/178 184/201/184 187/204/187
f 181/198/181 179/196/179 186/203/186 188/205/188
f 182/199/182 180/197/180 187/204/187 189/206/189
f 168/185/168 181/198/181 188/205/188 190/207/190
f 170/187/170 182/199/182 189/206/189 191/208/191
f 169/186/169 168/185/168 190/207/190 192/209/192
f 171/188/171 170/187/170 191/208/191 193/210/193
f 172/189/172 169/186/169 192/209/192 194/211/194
f 173/190/173 31/123/31 195/212/195
f 32/125/32 171/188/171 193/210/193
f 174/191/174 172/189/172 194/211/194 196/213/196
f 175/192/175 173/190/173 195/212/195 197/214/197
f 176/193/176 174/191/174 196/213/196 183/200/183
f 177/194/177 175/192/175 197/214/197 185/202/185
f 193/210/193 191/208/191 198/215/198 199/216/199
f 194/211/194 192/209/192 200/217/200 201/218/201
f 195/212/195 31/123/31 202/219/202
f 32/125/32 193/210/193 199/216/199
f 196/213/196 194/211/194 201/218/201 203/220/203
f 197/214/197 195/212/195 202/219/202 204/221/204
f 183/200/183 196/213/196 203/220/203 205/222/205
f 185/202/185 197/214/197 204/221/204 206/223/206
f 184/201/184 183/200/183 205/222/205 207/224/207
f 186/203/186 185/202/185 206/223/206 208/225/208
f 187/204/187 184/201/184 207/224/207 209/226/209
f 188/205/188 186/203/186 208/225/208 210/227/210
f 189/206/189 187/204/187 209/226/209 211/228/211
f 190/207/190 188/205/188 210/227/210 212/229/212
f 191/208/191 189/206/189 211/228/211 198/215/198
f 192/209/192 190/207/190 212/229/212 200/217/200
f 209/226/209 207/224/207 213/230/213 214/231/214
f 210/227/210 208/225/208 215/232/215 216/233/216
f 211/228/211 209/226/209 214/231/214 217/234/217
f 212/229/212 210/227/210 216/233/216 218/235/218
f 198/215/198 211/228/211 217/234/217 219/236/219
f 200/217/200 212/229/212 218/235/218 220/237/220
f 199/216/199 198/215/198 219/236/219 221/238/221
f 201/218/201 200/217/200 220/237/220 222/239/222
f 202/219/202 31/123/31 223/240/223
f 32/125/32 199/216/199 221/238/221
f 203/220/203 201/218/201 222/239/222 224/241/224
f 204/221/204 202/219/202 223/240/223 225/242/225
f 205/222/205 203/220/203 224/241/224 226/243/226
f 206/223/206 204/221/204 225/242/225 227/244/227
f 207/224/207 205/222/205 226/243/226 213/230/213
f 208/225/208 206/223/206 227/244/227 215/232/215
f 223/240/223 31/123/31 228/245/228
f 32/125/32 221/238/221 229/246/229
f 224/241/224 222/239/222 230/247/230 231/248/231
f 225/242/225 223/240/223 228/245/228 232/249/232
f 226/243/226 224/241/224 231/248/231 233/250/233
f 227/244/227 225/242/225 232/249/232 234/251/234
f 213/230/213 226/243/226 233/250/233 235/252/235
f 215/232/215 227/244/227 234/251/234 236/253/236
f 214/231/214 213/230/213 235/252/235 237/254/237
f 216/233/216 215/232/215 236/253/236 238/255/238
f 217/234/217 214/231/214 237/254/237 239/256/239
f 218/235/218 216/233/216 238/255/238 240/257/240
f 219/236/219 217/234/217 239/256/239 241/258/241
f 220/237/220 218/235/218 240/257/240 242/259/242
f 221/238/221 219/236/219 241/258/241 229/246/229
f 222/239/222 220/237/220 242/259/242 230/247/230
f 238/255/238 236/253/236 243/260/243 244/261/244
f 239/256/239 237/254/237 245/262/245 246/263/246
f 240/257/240 238/255/238 244/261/244 247/264/247
f 241/258/241 239/256/239 246/263/246 248/265/248
f 242/259/242 240/257/240 247/264/247 249/266/249
f 229/246/229 241/258/241 248/265/248 250/267/250
f 230/247/230 242/259/242 249/266/249 251/268/251
f 228/245/228 31/123/31 252/269/252
f 32/125/32 229/246/229 250/267/250
f 231/248/231 230/247/230 251/268/251 253/270/253
f 232/249/232 228/245/228 252/269/252 254/271/254
f 233/250/233 231/248/231 253/270/253 255/272/255
f 234/251/234 232/249/232 254/271/254 256/273/256
f 235/252/235 233/250/233 255/272/255 257/274/257
f 236/253/236 234/251/234 256/273/256 243/260/243
f 237/254/237 235/252/235 257/274/257 245/262/245
f 253/270/253 251/268/251 258/275/258 259/276/259
f 254/271/254 252/269/252 260/277/260 261/278/261
f 255/272/255 253/270/253 259/276/259 262/279/262
f 256/273/256 254/271/254 261/278/261 263/280/263
f 257/274/257 255/272/255 262/279/262 264/281/264
f 243/260/243 256/273/256 263/280/263 265/282/265
f 245/262/245 257/274/257 264/281/264 266/283/266
f 244/261/244 243/260/243 265/282/265 267/284/267
f 246/263/246 245/262/245 266/283/266 268/285/268
f 247/264/247 244/261/244 267/284/267 269/286/269
f 248/265/248 246/263/246 268/285/268 270/287/270
f 249/266/249 247/264/247 269/286/269 271/288/271
f 250/267/250 248/265/248 270/287/270 272/289/272
f 251/268/251 249/266/249 271/288/271 258/275/258
f 252/269/252 31/123/31 260/277/260
f 32/125/32 250/267/250 272/289/272
f 268/285/268 266/283/266 273/290/273 274/291/274
f 269/286/269 267/284/267 275/292/275 276/293/276
f 270/287/270 268/285/268 274/291/274 277/294/277
f 271/288/271 269/286/269 276/293/276 278/295/278
f 272/289/272 270/287/270 277/294/277 279/296/279
f 258/275/258 271/288/271 278/295/278 280/297/280
f 260/277/260 31/123/31 281/298/281
f 32/125/32 272/289/272 279/296/279
f 259/276/259 258/275/258 280/297/280 282/299/282
f 261/278/261 260/277/260 281/298/281 283/300/283
f 262/279/262 259/276/259 282/299/282 284/301/284
f 263/280/263 261/278/261 283/300/283 285/302/285
f 264/281/264 262/279/262 284/301/284 286/303/286
f 265/282/265 263/280/263 285/302/285 287/304/287
f 266/283/266 264/281/264 286/303/286 273/290/273
f 267/284/267 265/282/265 287/304/287 275/292/275
f 283/300/283 281/298/281 288/305/288 289/306/289
f 284/301/284 282/299/282 290/307/290 291/308/291
f 285/302/285 283/300/283 289/306/289 292/309/292
f 286/303/286 284/301/284 291/308/291 293/310/293
f 287/304/287 285/302/285 292/309/292 294/311/294
f 273/290/273 286/303/286 293/310/293 295/312/295
f 275/292/275 287/304/287 294/311/294 296/313/296
f 274/291/274 273/290/273 295/312/295 297/314/297
f 276/293/276 275/292/275 296/313/296 298/315/298
f 277/294/277 274/291/274 297/314/297 299/316/299
f 278/295/278 276/293/276 298/315/298 300/317/300
f 279/296/279 277/294/277 299/316/299 301/318/301
f 280/297/280 278/295/278 300/317/300 302/319/302
f 281/298/281 31/123/31 288/305/288
f 32/125/32 279/296/279 301/318/301
f 282/299/282 280/297/280 302/319/302 290/307/290
f 298/315/298 296/313/296 303/320/303 304/321/304
f 299/316/299 297/314/297 305/322/305 306/323/306
f 300/317/300 298/315/298 304/321/304 307/324/307
f 301/318/301 299/316/299 306/323/306 308/325/308
f 302/319/302 300/317/300 307/324/307 309/326/309
f 288/305/288 31/123/31 310/327/310
f 32/125/32 301/318/301 308/325/308
f 290/307/290 302/319/302 309/326/309 311/328/311
f 289/306/289 288/305/288 310/327/310 312/329/312
f 291/308/291 290/307/290 311/328/311 313/330/313
f 292/309/292 289/306/289 312/329/312 314/331/314
f 293/310/293 291/308/291 313/330/313 315/332/315
f 294/311/294 292/309/292 314/331/314 316/333/316
f 295/312/295 293/310/293 315/332/315 317/334/317
f 296/313/296 294/311/294 316/333/316 303/320/303
f 297/314/297 295/312/295 317/334/317 305/322/305
f 313/330/313 311/328/311 318/335/318 319/336/319
f 314/331/314 312/329/312 320/337/320 321/338/321
f 315/332/315 313/330/313 319/336/319 322/339/322
f 316/333/316 314/331/314 321/338/321 323/340/323
f 317/334/317 315/332/315 322/339/322 324/341/324
f 303/320/303 316/333/316 323/340/323 325/342/325
f 305/322/305 317/334/317 324/341/324 326/343/326
f 304/321/304 303/320/303 325/342/325 327/344/327
f 306/323/306 305/322/305 326/343/326 328/345/328
f 307/324/307 304/321/304 327/344/327 329/346/329
f 308/325/308 306/323/306 328/345/328 330/347/330
f 309/326/309 307/324/307 329/346/329 331/348/331
f 310/327/310 31/123/31 332/349/332
f 32/125/32 308/325/308 330/347/330
f 311/328/311 309/326/309 331/348/331 318/335/318
f 312/329/312 310/327/310 332/349/332 320/337/320
f 328/345/328 326/343/326 333/350/333 334/351/334
f 329/346/329 327/344/327 335/352/335 336/353/336
f 330/347/330 328/345/328 334/351/334 337/354/337
f 331/348/331 329/346/329 336/353/336 338/355/338
f 332/349/332 31/123/31 339/356/339
f 32/125/32 330/347/330 337/354/337
f 318/335/318 331/348/331 338/355/338 340/357/340
f 320/337/320 332/349/332 339/356/339 341/358/341
f 319/336/319 318/335/318 340/357/340 342/359/342
f 321/338/321 320/337/320 341/358/341 343/360/343
f 322/339/322 319/336/319 342/359/342 344/361/344
f 323/340/323 321/338/321 343/360/343 345/362/345
f 324/341/324 322/339/322 344/361/344 346/363/346
f 325/342/325 323/340/323 345/362/345 347/364/347
f 326/343/326 324/341/324 346/363/346 333/350/333
f 327/344/327 325/342/325 347/364/347 335/352/335
f 344/365/344 342/366/342 348/367/348 349/368/349
f 345/369/345 343/370/343 350/371/350 351/372/351
f 346/373/346 344/365/344 349/368/349 352/374/352
f 347/375/347 345/369/345 351/372/351 353/376/353
f 333/377/333 346/373/346 352/374/352 354/378/354
f 335/379/335 347/375/347 353/376/353 355/380/355
f 334/381/334 333/377/333 354/378/354 356/382/356
f 336/383/336 335/379/335 355/380/355 357/384/357
f 337/385/337 334/381/334 356/382/356 358/386/358
f 338/387/338 336/383/336 357/384/357 359/388/359
f 339/389/339 31/31/31 360/390/360
f 32/32/32 337/385/337 358/386/358
f 340/391/340 338/387/338 359/388/359 361/392/361
f 341/393/341 339/389/339 360/390/360 362/394/362
f 342/366/342 340/391/340 361/392/361 348/367/348
f 343/370/343 341/393/341 362/394/362 350/371/350
f 358/386/358 356/382/356 363/395/363 364/396/364
f 359/388/359 357/384/357 365/397/365 366/398/366
f 360/390/360 31/31/31 367/399/367
f 32/32/32 358/386/358 364/396/364
f 361/392/361 359/388/359 366/398/366 368/400/368
f 362/394/362 360/390/360 367/399/367 369/401/369
f 348/367/348 361/392/361 368/400/368 370/402/370
f 350/371/350 362/394/362 369/401/369 371/403/371
f 349/368/349 348/367/348 370/402/370 372/404/372
f 351/372/351 350/371/350 371/403/371 373/405/373
f 352/374/352 349/368/349 372/404/372 374/406/374
f 353/376/353 351/372/351 373/405/373 375/407/375
f 354/378/354 352/374/352 374/406/374 376/408/376
f 355/380/355 353/376/353 375/407/375 377/409/377
f 356/382/356 354/378/354 376/408/376 363/395/363
f 357/384/357 355/380/355 377/409/377 365/397/365
f 373/405/373 371/403/371 378/410/378 379/411/379
f 374/406/374 372/404/372 380/412/380 381/413/381
f 375/407/375 373/405/373 379/411/379 382/414/382
f 376/408/376 374/406/374 381/413/381 383/415/383
f 377/409/377 375/407/375 382/414/382 384/416/384
f 363/395/363 376/408/376 383/415/383 385/417/385
f 365/397/365 377/409/377 384/416/384 386/418/386
f 364/396/364 363/395/363 385/417/385 387/419/387
f 366/398/366 365/397/365 386/418/386 388/420/388
f 367/399/367 31/31/31 389/421/389
f 32/32/32 364/396/364 387/419/387
f 368/400/368 366/398/366 388/420/388 390/422/390
f 369/401/369 367/399/367 389/421/389 391/423/391
f 370/402/370 368/400/368 390/422/390 392/424/392
f 371/403/371 369/401/369 391/423/391 378/410/378
f 372/404/372 370/402/370 392/424/392 380/412/380
f 388/420/388 386/418/386 393/425/393 394/426/394
f 389/421/389 31/31/31 395/427/395
f 32/32/32 387/419/387 396/428/396
f 390/422/390 388/420/388 394/426/394 397/429/397
f 391/423/391 389/421/389 395/427/395 398/430/398
f 392/424/392 390/422/390 397/429/397 399/431/399
f 378/410/378 391/423/391 398/430/398 400/432/400
f 380/412/380 392/424/392 399/431/399 401/433/401
f 379/411/379 378/410/378 400/432/400 402/434/402
f 381/413/381 380/412/380 401/433/401 403/435/403
f 382/414/382 379/411/379 402/434/402 404/436/404
f 383/415/383 381/413/381 403/435/403 405/437/405
f 384/416/384 382/414/382 404/436/404 406/438/406
f 385/417/385 383/415/383 405/437/405 407/439/407
f 386/418/386 384/416/384 406/438/406 393/425/393
f 387/419/387 385/417/385 407/439/407 396/428/396
f 403/435/403 401/433/401 408/440/408 409/441/409
f 404/436/404 402/434/402 410/442/410 411/443/411
f 405/437/405 403/435/403 409/441/409 412/444/412
f 406/438/406 404/436/404 411/443/411 413/445/413
f 407/439/407 405/437/405 412/444/412 414/446/414
f 393/425/393 406/438/406 413/445/413 415/447/415
f 396/428/396 407/439/407 414/446/414 416/448/416
f 394/426/394 393/425/393 415/447/415 417/449/417
f 395/427/395 31/31/31 418/450/418
f 32/32/32 396/428/396 416/448/416
f 397/429/397 394/426/394 417/449/417 419/451/419
f 398/430/398 395/427/395 418/450/418 420/452/420
f 399/431/399 397/429/397 419/451/419 421/453/421
f 400/432/400 398/430/398 420/452/420 422/454/422
f 401/433/401 399/431/399 421/453/421 408/440/408
f 402/434/402 400/432/400 422/454/422 410/442/410
f 418/450/418 31/31/31 423/455/423
f 32/32/32 416/448/416 424/456/424
f 419/451/419 417/449/417 425/457/425 426/458/426
f 420/452/420 418/450/418 423/455/423 427/459/427
f 421/453/421 419/451/419 426/458/426 428/460/428
f 422/454/422 420/452/420 427/459/427 429/461/429
f 408/440/408 421/453/421 428/460/428 430/462/430
f 410/442/410 422/454/422 429/461/429 431/463/431
f 409/441/409 408/440/408 430/462/430 432/464/432
f 411/443/411 410/442/410 431/463/431 433/465/433
f 412/444/412 409/441/409 432/464/432 434/466/434
f 413/445/413 411/443/411 433/465/433 435/467/435
f 414/446/414 412/444/412 434/466/434 436/468/436
f 415/447/415 413/445/413 435/467/435 437/469/437
f 416/448/416 414/446/414 436/468/436 424/456/424
f 417/449/417 415/447/415 437/469/437 425/457/425
f 433/465/433 431/463/431 438/470/438 439/471/439
f 434/466/434 432/464/432 440/472/440 441/473/441
f 435/467/435 433/465/433 439/471/439 442/474/442
f 436/468/436 434/466/434 441/473/441 443/475/443
f 437/469/437 435/467/435 442/474/442 444/476/444
f 424/456/424 436/468/436 443/475/443 445/477/445
f 425/457/425 437/469/437 444/476/444 446/478/446
f 423/455/423 31/31/31 447/479/447
f 32/32/32 424/456/424 445/477/445
f 426/458/426 425/457/425 446/478/446 448/480/448
f 427/459/427 423/455/423 447/479/447 449/481/449
f 428/460/428 426/458/426 448/480/448 450/482/450
f 429/461/429 427/459/427 449/481/449 451/483/451
f 430/462/430 428/460/428 450/482/450 452/484/452
f 431/463/431 429/461/429 451/483/451 438/470/438
f 432/464/432 430/462/430 452/484/452 440/472/440
f 448/480/448 446/478/446 453/485/453 454/486/454
f 449/481/449 447/479/447 455/487/455 456/488/456
f 450/482/450 448/480/448 454/486/454 457/489/457
f 451/483/451 449/481/449 456/488/456 458/490/458
f 452/484/452 450/482/450 457/489/457 459/491/459
f 438/470/438 451/483/451 458/490/458 460/492/460
f 440/472/440 452/484/452 459/491/459 461/493/461
f 439/471/439 438/470/438 460/492/460 462/494/462
f 441/473/441 440/472/440 461/493/461 463/495/463
f 442/474/442 439/471/439 462/494/462 464/496/464
f 443/475/443 441/473/441 463/495/463 465/497/465
f 444/476/444 442/474/442 464/496/464 466/498/466
f 445/477/445 443/475/443 465/497/465 467/499/467
f 446/478/446 444/476/444 466/498/466 453/485/453
f 447/479/447 31/31/31 455/487/455
f 32/32/32 445/477/445 467/499/467
f 463/495/463 461/493/461 468/500/468 469/501/469
f 464/496/464 462/494/462 470/502/470 471/503/471
f 465/497/465 463/495/463 469/501/469 472/504/472
f 466/498/466 464/496/464 471/503/471 473/505/473
f 467/499/467 465/497/465 472/504/472 474/506/474
f 453/485/453 466/498/466 473/505/473 475/507/475
f 455/487/455 31/31/31 476/508/476
f 32/32/32 467/499/467 474/506/474
f 454/486/454 453/485/453 475/507/475 477/509/477
f 456/488/456 455/487/455 476/508/476 478/510/478
f 457/489/457 454/486/454 477/509/477 479/511/479
f 458/490/458 456/488/456 478/510/478 480/512/480
f 459/491/459 457/489/457 479/511/479 481/513/481
f 460/492/460 458/490/458 480/512/480 482/514/482
f 461/493/461 459/491/459 481/513/481 468/500/468
f 462/494/462 460/492/460 482/514/482 470/502/470
f 479/511/479 477/509/477 6/6/6 5/5/5
f 480/512/480 478/510/478 1/1/1 9/9/9
f 481/513/481 479/511/479 5/5/5 11/11/11
f 482/514/482 480/512/480 9/9/9 13/13/13
f 468/500/468 481/513/481 11/11/11 15/15/15
f 470/502/470 482/514/482 13/13/13 17/17/17
f 469/501/469 468/500/468 15/15/15 19/19/19
f 471/503/471 470/502/470 17/17/17 21/21/21
f 472/504/472 469/501/469 19/19/19 23/23/23
f 473/505/473 471/503/471 21/21/21 25/25/25
f 474/506/474 472/504/472 23/23/23 27/27/27
f 475/507/475 473/505/473 25/25/25 29/29/29
f 476/508/476 31/31/31 2/2/2
f 32/32/32 474/506/474 27/27/27
f 477/509/477 475/507/475 29/29/29 6/6/6
f 478/510/478 476/508/476 2/2/2 1/1/1
